{
    "Changes": [
        {
            "Action": "EditData",
            "Target": "Data/Machines",
            "Entries": {
                "(BC)Hue-Nifier": {
                    "OutputRules": [
                        {
                            "Id": "removecolour",
                            "Triggers": [
                                {
                                    "Id": "removecolour",
                                    "RequiredTags": [
                                        "category_flowers",
                                        "!item_crocus",
                                        "!item_sunflower",
                                        "!item_sweet_pea"
                                    ]
                                }
                            ],
                            "OutputItem": [
                                {
                                    "ItemId": "DROP_IN_ID",
                                    "CopyColor": "false",
                                    "CopyQuality": "{{Random: true, true, true, true, true, true, true, true, true, false|key={{Time}}}}"
                                }
                            ],
                            "MinutesUntilReady": "120"
                        }
                    ]
                }
            },
            "Update": "OnTimeChange",
            "LogName": "Machine logic"
        }
    ]
}
